Getting Started with bbr.bayes and NONMEM Bayes • bbr.bayes
…
nm_join_bayes()

nm_join_bayes() and nm_join_bayes_quick() are functions for joining model output summaries to the input data, in a similar way that bbr::nm_join does for non-Bayesian NONMEM models.

nm_join_bayes() selects a subset of the posterior samples. It uses these as input to a user-defined mrgsolve model to simulate EPRED and IPRED and then summarizes the simulated values in the result. In addition, it feeds the simulated EPRED values to npde to calculate EWRES and NPDE values.

nm_join_bayes_quick() does not simulate quantities from the posterior samples. It instead summarizes the reported values from the table files. As the name suggests, this is useful for taking an initial look at the results, though simulation-based values should be used for more reliable estimates.

nm_join_bayes_quick(mod1100) %>%
  select(NUM, TIME, EPRED, IPRED, NPDE, EWRES)
#> # A tibble: 4,292 × 6
#>      NUM  TIME EPRED IPRED   NPDE  EWRES
#>    <dbl> <dbl> <dbl> <dbl>  <dbl>  <dbl>
#>  1     1  0      0     0    0      0    
#>  2     2  0.61  59.3  65.7 -0.417 -0.516
#>  3     3  1.15  77.8  90.0  0.189  0.128
#>  4     4  1.73  83.9  98.6  1.42   1.53 
#>  5     5  2.15  84.0  99.0  1.75   1.75 
#>  6     6  3.19  78.3  91.2 -0.130 -0.220
#>  7     7  4.21  69.9  80.4 -1.23  -1.10 
#>  8     8  5.09  62.7  71.5 -1.81  -1.57 
#>  9     9  6.22  54.5  61.6  0.544  0.376
#> 10    10  8.09  43.8  49.2  1.43   1.30 
#> # ℹ 4,282 more rows
…
